Tidy Tuesday – World’s Fairs – 8/13/24
…
# number of fairs held in each country
worlds_fairs_days %>% 
  group_by(country) %>% 
  summarize(count = n()) %>% 
  arrange(desc(count))

# A tibble: 24 × 2
   country       count
   <chr>         <int>
 1 United States    11
 2 France            9
 3 Italy             8
 4 Belgium           7
 5 Japan             4
 6 Spain             4
 7 Bulgaria          3
 8 Sweden            3
 9 Canada            2
10 Israel            2
# ℹ 14 more rows
…
